{
  "version": "1.0.0-*",
  "buildOptions": {
    "debugType": "portable",
    "compilerName": "fsc",
    "compile": {
      "includeFiles": [
        "Lib.Tests.fs"
      ]
    }
  },
  "dependencies": {
    "Microsoft.FSharp.Core.netcore": "1.0.0-*",
    "System.Runtime.Serialization.Primitives": "4.1.1",
    "xunit": "2.1.0",
    "FsUnit.Xunit":"2.3.0-*",
    "dotnet-test-xunit": "1.0.0-*",
    "lib": {
      "target": "project"
    }
  },
  "testRunner": "xunit",  
  "frameworks": {
    "netcoreapp1.0": {
      "dependencies": {
        "Microsoft.NETCore.App": {
          "type": "platform",
          "version": "1.0.0"
        }
      },
      "imports": [
        "dnxcore50",
        "portable-net451+win8"
      ]
    }
  },
  "tools": {
    "dotnet-compile-fsc": {
      "version": "1.0.0-*",
      "imports": "dnxcore50"
    }
  }
}
